{
    "type": "service_account",
    "project_id": "koto-78f7c",
    "private_key_id": "2b7197459111b38cdd0cb5dedd98819f15fb61f0",
    "private_key": "-----BEGIN PRIVATE KEY-----\nMIIEvgIBADANBgkqhkiG9w0BAQEFAASCBKgwggSkAgEAAoIBAQDHl8AyZzQejLII\nGbEKuG9EK5bNTOKzYMihXwRVA3JNbmQC2SyBvHfK7h6DyfxaCaa1lY+FVOL18zTG\n9CCF3t+uvJN/sFVClL19H2AfSgrDJGGOr2pjlvXQatBEaKugDuKPMP3RIMpWqI9i\nyJNe+P13p3mn0OthUIxMdm0GulH1VGNM33BuZ+Pc82EvvmYe4tTo56ZX7onq6Nkm\nQNc1LlLHXMxWYnxjnVBpdVKNeIeEWXugNZDmz0+b+j4VwUPn01Fkr+NZjIa45s4L\nfLcQrb7UiGYHJmxv17fY0J6dv9qt4VPrsZqosaiQ/xbKFsKWMsyI19xQShkIftyK\ngyH1CcXzAgMBAAECggEADA478y9to/y+kiOvIGUkf1scqDjhJpGNfMXG9rWXFVs6\nGjvw5sMx/yVj3XT5U5zqn2Qxv41xigaPJQdA4aUlIKJOTHOjqrpeOa0H+svXm5La\ne6pXxD0titGw07j4yNmtUJXWdufCoPpccsyHrkBe2vfYLs09MmsRllq+2h2t7qH3\nZhKCB7A307ybZmZh5U1SssSegWqZLzVZFFazfouGglJlkCrcdxJEwvo2RVp65ae8\nGWQvpTx3fSLxHT7cDa/+hxxCNV15ZK6HVxjhmkcADQFV0rMHRz8zRIk8JlOwZok0\nitHaS3awvyryhSQ17jXWlpstM7YIK5juOWryEVIc+QKBgQDu/suR8WYguaPZwCGA\n1zKiKuqCogk7Ra2GuyV7EJfoRqfqzysO+c+nf/Lc61rsay5IeW1jSjd/aVySKy13\nLPOrXvEnlcp9n2iK18ryGjcOfY356EcBJZtJdieXm58HfCST9yHaplMUNKaUnFpK\nP9ac8/rF0j1zs4InKK9jKZ6K+QKBgQDVy0EZjXMY3LoAPasrNbIS2nz57kg3BUxg\nYA/00Kz7kdFwzXQ96rW1xAjUZ4HtOMCCNB44cvhR9A0doMoan4PE/jmF4sGAYAWe\nDnZCWXfdME/19upqI/PFvZZj3y8aQMx9/UQ9QaakR2mBPDUkNJ3nkvBOuyX44OVw\nQjlw+mxHSwKBgQC9awghBXhyG2/3l0V2fhjNWsI/AvnaFmFv1Ufhf8dF+yn++m8g\nEXI5STlNSuPnWRN3sXW3Kg1OWE1cNAh22hPOEROE0j2IzxzmXh2lQI2+WFh8Z1JP\nYGTxFkpO6LJkFkpPU6FrUEOsUgZs5nbRPkN0ZhKtUvINj4pqSt6m80eK0QKBgA6K\nISZEuWQidr/XcdGheDfSBhfVPbIIOTaAsfUbT/hX5V9/iX1AfhUbfOI9G9fvOSBh\nvQBnyT2BlHbEXZpL6OE3zN+vGSvK2/bw0tgWT5GKXJXEshJ/2W9EQnsOTZzCdWXI\nGKD12whnFuTEHHUW4vpBwvgHwEBZwyDMUC2/yidbAoGBAOmt54LFNNuNmJPGYWVU\nCunNgkABfugVrJg6m/johK1/hcTDqFeweI65fizFR64weLZ5tOOCE5fCM+KDnyz8\ngnk0nFFea8lSj47fQvOm26Fwq1aAy6hqL31eUtIINaOpp4Oxuh+g9r6XKLwZ9tld\nN6wF4WkcR1q1tGwBfyI7lYZ3\n-----END PRIVATE KEY-----\n",
    "client_email": "firebase-adminsdk-hzfkq@koto-78f7c.iam.gserviceaccount.com",
    "client_id": "102616107695685729147",
    "auth_uri": "https://accounts.google.com/o/oauth2/auth",
    "token_uri": "https://oauth2.googleapis.com/token",
    "auth_provider_x509_cert_url": "https://www.googleapis.com/oauth2/v1/certs",
    "client_x509_cert_url": "https://www.googleapis.com/robot/v1/metadata/x509/firebase-adminsdk-hzfkq%40koto-78f7c.iam.gserviceaccount.com"
}
