<?xml version="1.0" encoding="UTF-8"?>
<svg width="20px" height="23px" viewBox="0 0 20 23" version="1.1" xmlns="http://www.w3.org/2000/svg" xmlns:xlink="http://www.w3.org/1999/xlink">
    <!-- Generator: Sketch 52.2 (67145) - http://www.bohemiancoding.com/sketch -->
    <title>Group 17</title>
    <desc>Created with Sketch.</desc>
    <g id="Cover" stroke="none" stroke-width="1" fill="none" fill-rule="evenodd" stroke-linecap="round" stroke-linejoin="round">
        <g id="menu-bowls" transform="translate(-30.000000, -207.000000)" stroke="#F4784E" stroke-width="2">
            <g id="Group-17" transform="translate(31.000000, 208.000000)">
                <path d="M7.91666667,17.9166667 C12.2889209,17.9166667 15.8333333,14.3722543 15.8333333,10 C9.58333333,10 6.66666667,10 0,10 C0,14.3722543 3.5444124,17.9166667 7.91666667,17.9166667 Z" id="Oval"></path>
                <path d="M1.01171875,20.4166667 L14.3392857,20.4166667" id="Line"></path>
                <path d="M10.9166667,9.275 L15.5,0" id="Line-2"></path>
                <path d="M10.797619,9.51309524 L17.8809524,2.73809524" id="Line-2-Copy"></path>
            </g>
        </g>
    </g>
</svg>