<?xml version="1.0" encoding="UTF-8"?>
<svg width="104px" height="40px" viewBox="0 0 104 40" version="1.1" xmlns="http://www.w3.org/2000/svg" xmlns:xlink="http://www.w3.org/1999/xlink">
    <!-- Generator: Sketch 52.2 (67145) - http://www.bohemiancoding.com/sketch -->
    <title>Path 9</title>
    <desc>Created with Sketch.</desc>
    <g id="Welcome" stroke="none" stroke-width="1" fill="none" fill-rule="evenodd" stroke-linecap="round" stroke-linejoin="round">
        <g id="tracker" transform="translate(-523.000000, -267.000000)" stroke="#CA3519">
            <path d="M525,267 C523,287.160198 523.833333,298.918075 527.5,302.27363 C533,307.306964 558,307.611757 563,302.27363 C568,296.935503 555.5,283.425006 589.5,283.425006 C612.166667,283.425006 624.443197,283.616671 626.32959,284" id="Path-9"></path>
        </g>
    </g>
</svg>