<?xml version="1.0" encoding="UTF-8"?>
<svg width="10px" height="11px" viewBox="0 0 10 11" version="1.1" xmlns="http://www.w3.org/2000/svg" xmlns:xlink="http://www.w3.org/1999/xlink">
    <!-- Generator: Sketch 52.2 (67145) - http://www.bohemiancoding.com/sketch -->
    <title>Group</title>
    <desc>Created with Sketch.</desc>
    <g id="Cover" stroke="none" stroke-width="1" fill="none" fill-rule="evenodd">
        <g id="search" transform="translate(-286.000000, -395.000000)" fill="#E2E2E0">
            <g id="Group-3-Copy-2" transform="translate(13.000000, 378.000000)">
                <g id="Group" transform="translate(272.000000, 17.000000)">
                    <rect id="Rectangle-Copy" transform="translate(6.000000, 5.489541) rotate(45.000000) translate(-6.000000, -5.489541) " x="-0.5" y="4.77215006" width="13" height="1.43478261" rx="0.717391304"></rect>
                    <rect id="Rectangle-Copy" transform="translate(6.000000, 5.489541) scale(-1, 1) rotate(45.000000) translate(-6.000000, -5.489541) " x="-0.5" y="4.77215006" width="13" height="1.43478261" rx="0.717391304"></rect>
                </g>
            </g>
        </g>
    </g>
</svg>