<?xml version="1.0" encoding="UTF-8"?>
<svg width="23px" height="23px" viewBox="0 0 23 23" version="1.1" xmlns="http://www.w3.org/2000/svg" xmlns:xlink="http://www.w3.org/1999/xlink">
    <!-- Generator: Sketch 52.2 (67145) - http://www.bohemiancoding.com/sketch -->
    <title>Group 21</title>
    <desc>Created with Sketch.</desc>
    <g id="Welcome" stroke="none" stroke-width="1" fill="none" fill-rule="evenodd">
        <g id="main" transform="translate(-60.000000, -694.000000)">
            <g id="Group-29" transform="translate(-1.000000, 0.000000)">
                <g id="Group-28" transform="translate(36.000000, 694.000000)">
                    <g id="Group-21" transform="translate(25.000000, 0.000000)">
                        <path d="M17.6234294,4.00387524 L15.2248841,4 C12.5302007,4 10.7887779,5.79908165 10.7887779,8.58363763 L10.7887779,10.6970015 L8.37714792,10.6970015 C8.16875445,10.6970015 8,10.8671247 8,11.0769691 L8,14.1389925 C8,14.3488369 8.16894687,14.5187663 8.37714792,14.5187663 L10.7887779,14.5187663 L10.7887779,22.2452262 C10.7887779,22.4550706 10.9575324,22.625 11.1659258,22.625 L14.312417,22.625 C14.5208105,22.625 14.6895649,22.4548768 14.6895649,22.2452262 L14.6895649,14.5187663 L17.5093229,14.5187663 C17.7177163,14.5187663 17.8864708,14.3488369 17.8864708,14.1389925 L17.8876253,11.0769691 C17.8876253,10.9762128 17.8477939,10.8797192 17.7771749,10.8084147 C17.7065558,10.7371103 17.6103446,10.6970015 17.510285,10.6970015 L14.6895649,10.6970015 L14.6895649,8.90547658 C14.6895649,8.04439754 14.8933403,7.60727011 16.0072736,7.60727011 L17.6230445,7.60668883 C17.8312456,7.60668883 18,7.43656565 18,7.22691499 L18,4.38364907 C18,4.17419218 17.831438,4.00426277 17.6234294,4.00387524 Z" id="Path" fill="#F3783F"></path>
                        <rect id="Rectangle" stroke="#F3783F" stroke-width="2" x="1" y="1" width="21" height="21" rx="2"></rect>
                    </g>
                </g>
            </g>
        </g>
    </g>
</svg>