<svg id="Layer-7" xmlns="http://www.w3.org/2000/svg" width="56.325" height="56.326" viewBox="0 0 56.325 56.326">
  <defs>
    <style>
      .cls-1 {
        fill: #ff4e2d;
        fill-rule: evenodd;
      }
    </style>
  </defs>
  <path id="Path_1" data-name="Path 1" class="cls-1" d="M28.162,0A28.163,28.163,0,1,1,0,28.163,28.163,28.163,0,0,1,28.162,0ZM23.812,6.649A5.891,5.891,0,0,1,31.005,10.8c1.508,5.629,1.388,6-2.021,6.913a5.33,5.33,0,0,0-3.758,6.509l2.552,9.522A5.33,5.33,0,0,0,34.286,37.5c3.425-.917,3.687-.695,5.188,4.907A5.891,5.891,0,0,1,35.322,49.6C20.114,53.679,8.589,10.728,23.812,6.649Z"/>
</svg>
