<?xml version="1.0" encoding="UTF-8"?>
<svg width="23px" height="23px" viewBox="0 0 23 23" version="1.1" xmlns="http://www.w3.org/2000/svg" xmlns:xlink="http://www.w3.org/1999/xlink">
    <!-- Generator: Sketch 52.2 (67145) - http://www.bohemiancoding.com/sketch -->
    <title>Group 18</title>
    <desc>Created with Sketch.</desc>
    <g id="Welcome" stroke="none" stroke-width="1" fill="none" fill-rule="evenodd">
        <g id="main" transform="translate(-116.000000, -694.000000)" fill="#F3783F">
            <g id="Group-29" transform="translate(-1.000000, 0.000000)">
                <g id="Group-28" transform="translate(36.000000, 694.000000)">
                    <g id="Group-18" transform="translate(81.000000, 0.000000)">
                        <path d="M15.8125,0 L7.1875,0 C3.2185625,0 0,3.2185625 0,7.1875 L0,15.8125 C0,19.7814375 3.2185625,23 7.1875,23 L15.8125,23 C19.7814375,23 23,19.7814375 23,15.8125 L23,7.1875 C23,3.2185625 19.7814375,0 15.8125,0 Z M20.84375,15.8125 C20.84375,18.586875 18.586875,20.84375 15.8125,20.84375 L7.1875,20.84375 C4.413125,20.84375 2.15625,18.586875 2.15625,15.8125 L2.15625,7.1875 C2.15625,4.413125 4.413125,2.15625 7.1875,2.15625 L15.8125,2.15625 C18.586875,2.15625 20.84375,4.413125 20.84375,7.1875 L20.84375,15.8125 Z" id="Shape" fill-rule="nonzero"></path>
                        <path d="M11.5,5 C7.910375,5 5,7.910375 5,11.5 C5,15.089625 7.910375,18 11.5,18 C15.089625,18 18,15.089625 18,11.5 C18,7.910375 15.089625,5 11.5,5 Z M11.5,15.5625 C9.26075,15.5625 7.4375,13.73925 7.4375,11.5 C7.4375,9.259125 9.26075,7.4375 11.5,7.4375 C13.73925,7.4375 15.5625,9.259125 15.5625,11.5 C15.5625,13.73925 13.73925,15.5625 11.5,15.5625 Z" id="Shape" fill-rule="nonzero"></path>
                        <circle id="Oval" cx="17.5" cy="5.5" r="1.5"></circle>
                    </g>
                </g>
            </g>
        </g>
    </g>
</svg>