<!DOCTYPE svg PUBLIC "-//W3C//DTD SVG 20010904//EN" "http://www.w3.org/TR/2001/REC-SVG-20010904/DTD/svg10.dtd">
<svg version="1.0" xmlns="http://www.w3.org/2000/svg" width="60px" height="82px" viewBox="0 0 600 820" preserveAspectRatio="xMidYMid meet">
<g id="layer101" fill="#a2a2a4" stroke="none">
 <path d="M69 797 c-67 -44 -69 -58 -69 -385 0 -317 2 -334 54 -382 27 -25 29 -25 237 -28 196 -3 212 -2 243 17 66 41 68 50 64 403 l-3 316 -25 27 c-48 52 -64 55 -273 55 -185 0 -196 -1 -228 -23z m426 -82 c19 -18 25 -35 25 -70 l0 -45 -220 0 -220 0 0 35 c0 44 17 80 44 93 11 6 94 11 184 11 160 1 163 1 187 -24z m25 -390 c0 -261 14 -245 -218 -245 -233 0 -216 -19 -220 239 l-3 201 220 0 221 0 0 -195z"/>
 <path d="M260 710 c-39 -39 -14 -100 43 -100 33 0 57 24 57 59 0 55 -61 80 -100 41z"/>
 </g>

</svg>