<?xml version="1.0" encoding="UTF-8"?>
<svg width="23px" height="23px" viewBox="0 0 23 23" version="1.1" xmlns="http://www.w3.org/2000/svg" xmlns:xlink="http://www.w3.org/1999/xlink">
    <!-- Generator: Sketch 52.2 (67145) - http://www.bohemiancoding.com/sketch -->
    <title>Group 20</title>
    <desc>Created with Sketch.</desc>
    <g id="Welcome" stroke="none" stroke-width="1" fill="none" fill-rule="evenodd">
        <g id="main" transform="translate(-172.000000, -694.000000)">
            <g id="Group-29" transform="translate(-1.000000, 0.000000)">
                <g id="Group-28" transform="translate(36.000000, 694.000000)">
                    <g id="Group-20" transform="translate(137.000000, 0.000000)">
                        <rect id="Rectangle-Copy" stroke="#F3783F" stroke-width="2" x="1" y="1" width="21" height="21" rx="2"></rect>
                        <path d="" id="Path-2" stroke="#979797"></path>
                        <path d="M8,7.85373666 L8,15.6462633 C8,16.1985481 8.44771525,16.6462633 9,16.6462633 C9.19516967,16.6462633 9.38607353,16.5891517 9.54917789,16.4819688 L15.4782743,12.5857055 C15.9398217,12.2824029 16.0681044,11.6623695 15.7648019,11.2008221 C15.6898469,11.0867602 15.5923361,10.9892495 15.4782743,10.9142945 L9.54917789,7.01803118 C9.08763049,6.71472861 8.46759709,6.84301138 8.16429452,7.30455878 C8.05711166,7.46766313 8,7.658567 8,7.85373666 Z" id="Path-3" fill="#F3783F"></path>
                    </g>
                </g>
            </g>
        </g>
    </g>
</svg>