{
  "short_name": "Kotosushi",
  "name": "Kotosushi Module",
  "description": "Kotosushi Module for cook & admin & courier",
  "icons": [
    {
      "src": "favicons/favicon.ico",
      "sizes": "16x16",
      "type": "image/x-icon"
    },
    {
      "src": "images/logo192.png",
      "type": "image/png",
      "sizes": "192x192"
    },
    {
      "src": "images/logo512.png",
      "type": "image/png",
      "sizes": "512x512"
    }
  ],
  "start_url": "/app/",
  "display": "standalone",
  "theme_color": "#000000",
  "background_color": "#ffffff"
}
