{
    "name": "Kotosushi",
    "short_name": "Kotosushi",
    "icons": [{
          "src": "images/logo192.png",
          "sizes": "192x192",
          "type": "image/png"
        }],
    "start_url": "/",
    "display": "standalone"
  }
